<svg xmlns="http://www.w3.org/2000/svg" viewBox="0 0 109.21 198.22">
  <path fill="none" d="M61.25 48.8L61 49l.73-.19zM55.13 43.65a8.77 8.77 0 01-.3 1.27l.74 1.4a2.71 2.71 0 010-.29c0-.22-.08-.43-.12-.66-.1-.56-.21-1.13-.32-1.72zM65.46 55.44zM66.66 58.17h.18zM61.28 49.55h-.16l.06.18zM57.83 47.43v-.14c0 .12 0 .25-.07.36l.1-.2zM55.61 18.44a.49.49 0 00-.12-.24c-.35-.45-.71-1-1.09-1.55l.67 1.08c.23.37.4.77.6 1.14 0-.14-.06-.28-.06-.43zM55.58 36.5l.51.7.1.17v-.34c-.17-.22-.35-.44-.52-.68zM57 29v.07l.07.12A1.11 1.11 0 0157 29zM56.38 22.9l-.09-.8-.39-.43-.42-.49.08.14c.28.49.51 1 .76 1.47zM66.51 46.6h-.08zM57.46 49.77l.38-.45v-1.55l-.14.09c-.14.68-.28 1.28-.42 1.79l.11.23zM19.42 68.06l.1-.11-.14.09zM50.48 87s.05.19.12.19h.71s0-.12-.06-.26c-.17-1.23-.3-2.31-.37-3.31v-.36c-.06.4-.11.81-.15 1.17v.35c-.12.87-.21 1.45-.28 2a1.37 1.37 0 01-.1.46h.2zM23.33 46.7l.53-.14h-.2zM40.32 48.33l.22.09.21.09a3.19 3.19 0 01-.26-.26zM70.51 41.67l.57-.59h-.15c-.38.44-.75.9-1.17 1.33l-.5.55.13-.05c.35-.41.72-.82 1.12-1.24zM51.65 89.72l-.06-.36v.18c.01.06.04.11.06.18zM29.42 47.41l-.47.08-.6.1-.35.21a15.54 15.54 0 012.6.06h.2l.48-.09h-.08c-.57-.13-1.2-.24-1.78-.36zM55.8 30.4c.09.14.17.28.26.41v-.64zM19.76 95.89v.55c0-.27.07-.55.11-.83a2.77 2.77 0 01-.1.26zM33.61 71.76zM20.91 64.82l.62-.13.33-.2-1.25.4zM25.58 64.71l-.31.28 1-.67c.39-.24.77-.44 1.15-.64-.51.23-1 .46-1.51.71zM56.25 27.54h-.05zM66.75 67.44l-.3-.31c-.36-.35-.69-.72-1-1.06l-.45-.49a1.47 1.47 0 01.05.29c.36.66.72 1.33 1.06 2.06.72 1.45 1.39 3 2 4.66.45 1.18.88 2.4 1.29 3.65.16.2.46.6.85 1.17v-.17c-.21-.56-.36-1.13-.53-1.67-.33-1.09-.6-2.13-.8-3q-.18-.83-.3-1.47c-.32-.6-.64-1.2-.93-1.82s-.69-1.23-.94-1.84zM66.73 64.36l-1.35-1c-.11.12-.21.25-.33.36v.07c.48.31 1 .66 1.49 1.05.32.28.68.55 1 .85-.06-.31-.08-.5-.08-.5s.21.17.52.47l-.43-.66zM64.62 68.1l-.22.5a2.89 2.89 0 01-.39.64c0 .08 0 .16.07.25a17.56 17.56 0 01.67 4.14q0-.47.06-.9c.06-1 .14-1.9.23-2.69 0-.25 0-.48.08-.7s-.21-.56-.33-.83-.12-.27-.17-.41zM47.85 87.18l-.12.27.09-.09zM67.19 53.84l-.92-.07.61.22 1.35.54.14.07c-.36-.22-.7-.44-1-.65zM64.59 77.34zM76.84 56a8.83 8.83 0 01-.94-1l-.42-.09c-1-.21-2.08-.34-3.14-.5l-1-.13c.22.08.44.17.65.27l1.5.67 1.46.72c.49.24.94.51 1.4.75.79.44 1.5.87 2.13 1.28.69.15 1.34.31 2 .47-.28-.13-.57-.28-.85-.43A13.26 13.26 0 0176.84 56zM55.78 27l-.1-.12a1.74 1.74 0 00.1.12zM69.15 43.07l-.73.78.21-.06c.19-.24.4-.48.61-.72zM82.25 72.13l-.2-.14c.1.11.19.22.28.34-.03-.07-.05-.14-.08-.2zM44.91 63.52c-.43.31-.87.63-1.34.95h.08c.42-.26.85-.55 1.31-.8zM67.94 60.12a4 4 0 01-.21-.39l-.64-.08.47.3zM53.05 45.63c.29.4.53.81.79 1.2 0-.09 0-.2-.05-.35s0-.12 0-.17c-.33-.57-.65-1.14-1-1.72s-.76-1.31-1.16-2l-.35-.34-.65-.66.37.71c.22.42.39.86.57 1.27l.57.74zM54.64 52.5c-.31-.38-.62-.75-.9-1.07l-1-1.19c-.8-.37-1.67-.8-2.57-1.25.12.11.25.21.36.33.43.4.84.83 1.26 1.26l.08.1a9.44 9.44 0 01.92.49 12.39 12.39 0 011.85 1.33zM55.5 49.73v-.4L54 46.76l-.13.2c.52.81 1 1.6 1.34 2.3zM54.7 35.36c.18.21.36.44.53.67 0-.07.05-.14.07-.21-.26-.34-.52-.68-.76-1l-.4-.58c.14.26.28.55.43.86zM56 33.76l.12-.3c-.36-.39-.74-.81-1.13-1.28l.12.18zM50.08 53.53H50l.4.25zM37.35 68.83c.95-.7 1.9-1.34 2.85-1.93.32-.27.72-.59 1.19-.94l.73-.52c-.9.58-1.78 1.12-2.56 1.54-.77.64-1.56 1.26-2.21 1.85zM40 63.52l-1.94 1.2-1.43.93-.66.44c-.07.13-.15.25-.23.39-.33.54-.72 1.15-1.14 1.78.31-.32.63-.63.94-.94s.81-.76 1.2-1.13c.79-.72 1.55-1.37 2.24-1.9.36-.29.71-.55 1.02-.77zM44.2 61.41v-.26c-1 .51-1.94 1-2.92 1.62-.08.14-.23.39-.43.71.48-.35 1-.7 1.55-1s1-.62 1.57-.89zM40.35 68.76c.09-.11.17-.23.27-.33l.22-.23-.23.16zM45.56 50.58a10.05 10.05 0 01.76.85l.57.31a7.75 7.75 0 011.29.48l-.23.1a1.88 1.88 0 00.24.14l.42.11.6.18-.83-.75c-.44-.39-.94-.76-1.43-1.17s-1-.78-1.58-1.17-1.11-.76-1.68-1.14-1.14-.74-1.73-1l-.15-.09.51.34c.36.28.76.54 1.12.86l1.09 1z"/>
  <path d="M51.58 89.54v-.18l-.05-.36c-.09-.5-.16-1-.22-1.48h-.71a17.28 17.28 0 01.98 2.02z"/>
  <path fill="#e5ecc5" d="M50.78 90.4c-.11-.9-.18-1.82-.23-2.36 0-.29 0-.82-.06-.82h-.2V87.82c0 .51.08 1.06.12 1.58s0 1 .06 1.55 0 1 0 1.51c0 1-.05 1.88-.12 2.66a19.39 19.39 0 01-.38 2.6 17.78 17.78 0 01-.69-2.53c-.17-.77-.33-1.66-.45-2.62v-.38c-.08.45-.17.91-.25 1.35-.11.75-.24 1.47-.36 2.19.22-.34.37-.53.37-.53a16.74 16.74 0 01-.28 2.42 23.32 23.32 0 01-.54 2.4c-.12.43-.22.89-.38 1.33l-.07.22c-.62 4.54-1 7.56-1 7.56s0-.79-.08-2.15v-2.3l-.27.63v.07c-.77 7.63-1.52 14.86-1.72 15.86-.83 4.15-2.07 27.77-1.87 32.54s0 3.3.42 10.56 1 12.53 1.24 17.09.42 6.84 0 9.12c-.15.86-1.62 1.81-4.56 3.63s-2.77 4-2.77 4h21a43.73 43.73 0 00-3.73-4.87c-1.58-1.41-2.98-7.79-2.98-7.79l-2.49-16.23s-1-23-.83-24.23 0-15.32.42-17c.17-.69 1.17-11.45 2.1-21.93-.07-.6-.13-1.22-.16-1.84a25.74 25.74 0 01.17-4.61 13.74 13.74 0 01.44-2.12s.1.25.24.66c.13-1.49.26-2.91.37-4.22 0-.19-.05-.38-.07-.56-.19-1.1-.3-2.14-.41-3.04z"/>
  <path fill="#e5ecc5" d="M107.58 75.5c-.52-.48-1.17-1-1.94-1.65s-1.63-1.33-2.61-2-2-1.48-3.21-2.25l-.42-.27a6.32 6.32 0 00.8.13 6.09 6.09 0 001.44 0 6.17 6.17 0 00-1-1 10.77 10.77 0 00-2.57-1.52 10.23 10.23 0 00-2.87-.78 6.48 6.48 0 00-1.2-.09c-.66-.36-1.34-.73-2-1.06l-.54-.26c.87.19 1.73.4 2.55.57s1.83.39 2.6.54 1.42.25 1.88.32l.74.09a13.73 13.73 0 00-2.27-1.42 20.24 20.24 0 00-2.48-1.11c-.47-.16-.95-.36-1.45-.49l-1.22-.33h1.28a28.32 28.32 0 00-3-1.16c-.9-.31-2-.63-3.1-.93-.57-.14-1.16-.31-1.76-.44l-1.3-.29h.6l1.11.07s-.71-.34-1.91-.77a3.81 3.81 0 00.47 0 7.53 7.53 0 00-1.06-1.2 13.26 13.26 0 00-2.7-2 14.22 14.22 0 00-1.68-.8c.88.22 1.75.39 2.56.61s1.73.45 2.51.69c1.55.44 2.83.84 3.74 1.14s1.44.45 1.44.45l-1.28-.79c-.41-.25-.91-.53-1.51-.83s-1.27-.66-2-1-1.57-.69-2.46-1-1.83-.64-2.82-.94l-1.42-.38c.86-.07 1.68-.16 2.38-.27a20 20 0 002.65-.55 19.48 19.48 0 00-2.66-.52c-.79-.12-1.72-.22-2.72-.28-.5 0-1-.07-1.53-.07H72.61h.09a19.65 19.65 0 00-2.46-.36 18.1 18.1 0 002.76-.36 11.39 11.39 0 001.84-.62 11 11 0 00-1.84-.46 18.87 18.87 0 00-2.33-.22h.29c.93-.11 1.79-.25 2.52-.41a17.85 17.85 0 002.45-.65 16.88 16.88 0 00-2.24-.39c.8 0 1.55-.08 2.21-.15a19.66 19.66 0 002.36-.32 12.78 12.78 0 00-2.26-.78l-.55-.11.7-.06c1-.08 1.88-.2 2.66-.33a19.5 19.5 0 002.58-.58 18.35 18.35 0 00-2.6-.49c-.78-.11-1.69-.2-2.66-.25-.49 0-1-.06-1.5-.06H71.5c-.51 0-1 .08-1.5.11s-.88.08-1.29.13l.1-.08.18-.15.43-.25 2.58-.23c1.28-.12 2.63-.28 4-.4s2.71-.23 4-.35l3.5-.29 2.5-.22 1-.12-1-.21a22.71 22.71 0 00-2.51-.48c-.81-.12-1.73-.21-2.72-.26l.68-.14c.84-.17 1.62-.36 2.33-.56l1.44-.08c.51 0 1-.1 1.51-.14 1-.1 1.89-.23 2.67-.38a20.23 20.23 0 002.6-.67 18.84 18.84 0 00-2.63-.44c-.79-.1-1.71-.16-2.69-.19h-.49l.89-.22a15.24 15.24 0 00-2.63-.51c-.63-.08-1.36-.13-2.13-.15l.79-.29.94.05c.84 0 1.81.07 2.84.07h3.24c1.1 0 2.2-.07 3.24-.13s2-.13 2.83-.21c1.66-.15 2.8-.37 2.8-.37a17.75 17.75 0 00-2.75-.7 25.72 25.72 0 00-2.86-.37c-.53 0-1.07-.09-1.63-.09h-1.68l-1.68.09h-.31l.54-.17c1.47-.45 2.94-.81 4.36-1.18h.07l-.39.13a7.51 7.51 0 00-1.71.83 14.76 14.76 0 001.86.23 33.33 33.33 0 003.93 0 34.94 34.94 0 003.91-.33 15 15 0 001.84-.34 8 8 0 00-1.77-.7 13.11 13.11 0 00-4-.47c-.4 0-.79 0-1.17.09.55-.12 1.09-.24 1.62-.33 1.33-.24 2.58-.48 3.75-.63s2.24-.32 3.19-.42 1.79-.22 2.48-.26l2.17-.21-2.17-.16c-.69-.06-1.54-.09-2.51-.08h-1.55c-.55 0-1.12 0-1.72.07s-1.22 0-1.86.11l-1.22.13c1.28-.41 2.5-.84 3.46-1.24a21.08 21.08 0 002.1-.94 11.47 11.47 0 00-2.32-.11 19.07 19.07 0 00-4.98.85 19.38 19.38 0 00-4.58 2.07l-.74.5c-.84.18-1.69.38-2.53.63l-.81.23.9-.48c.48-.25.92-.53 1.36-.79.88-.52 1.67-1 2.34-1.51a21 21 0 002.17-1.71 20.29 20.29 0 00-2.65.75c-.78.26-1.67.6-2.61 1-.46.21-1 .4-1.43.64l-.37.18c.93-.76 1.48-1.28 1.48-1.28a30.53 30.53 0 00-3.09 1.18c-.9.39-1.94.88-3 1.44-.54.28-1.11.56-1.66.88l-1.7 1-.3.18c.72-.66 1.41-1.3 2-1.86.8-.75 1.45-1.39 1.9-1.85s.71-.74.71-.74a27.27 27.27 0 00-3.26 1.74c-1 .57-2 1.29-3.12 2.1-.55.42-1.13.83-1.68 1.3l-1.68 1.41L72 40.16l-.34.34-.38.16c.7-.83 1.35-1.64 1.88-2.35a31.53 31.53 0 001.9-2.76 31.57 31.57 0 00-2.68 2c-.77.64-1.64 1.4-2.55 2.26-.44.43-.92.85-1.38 1.32l-1.38 1.41L65.73 44c-.45.47-.86 1-1.27 1.44-.6.7-1.13 1.36-1.62 2l-.31.11c.6-.64 1.22-1.35 1.81-2.09a29.8 29.8 0 002.74-4.1 15.39 15.39 0 001-2.08s-.36.23-.9.65a13.38 13.38 0 00.63-1.58s-.23.2-.59.56-.87.87-1.46 1.5-1.27 1.36-2 2.16-1.47 1.64-2.23 2.43l-.42.49a1.62 1.62 0 00-.81.6 2.39 2.39 0 00-.33.64l-.47.54a1.19 1.19 0 01-.08-.2l-.03-.07v-.49l.23-.2a21.89 21.89 0 001.82-1.87c.3-.37.64-.73.93-1.14l.9-1.22.83-1.27c.27-.42.49-.86.73-1.27A23.05 23.05 0 0066 37.18a14.52 14.52 0 00.78-2.45A23.39 23.39 0 0065 36.64c-.48.58-1 1.27-1.58 2s-1.09 1.58-1.67 2.36c-.28.41-.55.82-.83 1.22s-.52.82-.78 1.21-.47.72-.68 1.07v-2.72l.38-.28a.31.31 0 000 .08 6.18 6.18 0 00-.17 1.44 6.16 6.16 0 001.11-.92 10 10 0 001.77-2.39 12.29 12.29 0 00.88-2.05c.27-.41.53-.83.79-1.25s.5-.94.72-1.41a17.89 17.89 0 001.3-4 12.06 12.06 0 00.23-1.91v-.73s-.14.23-.36.64-.52 1-.88 1.65-.78 1.45-1.23 2.29-.92 1.71-1.43 2.57-1 1.72-1.48 2.53l-1.36 2.2-.28.48v-2-.31c.22-.32.44-.65.64-1l.78-1.41.72-1.47c.25-.38.5-.76.73-1.17l.9-1.61c.27-.56.53-1.12.8-1.67s.46-1.11.68-1.65a26.48 26.48 0 001-3 18.19 18.19 0 00.57-3.06s-.18.26-.46.73-.66 1.13-1.1 1.93-1 1.73-1.48 2.73l-1.64 3.13-.27.52c-.19.33-.38.65-.57 1-.49.83-1 1.74-1.47 2.64 0-.32 0-.65-.05-1 .08-.11.17-.22.25-.35a19.25 19.25 0 001.33-2.15c.21-.41.45-.82.64-1.27l.6-1.34.5-1.38c.17-.45.28-.92.42-1.36a20.31 20.31 0 00.54-2.47 13.75 13.75 0 00.2-2.49s-.47.71-1 1.81A18 18 0 0061 25c-.47.61-1 1.34-1.5 2.14-.25.39-.52.79-.76 1.22-.06-.64-.12-1.27-.2-1.91a4.66 4.66 0 00.25-.5c.17-.37.34-.75.52-1.13-.19.83-.26 1.39-.26 1.39a9.11 9.11 0 001.38-1.55 15.67 15.67 0 002.09-3.95 16.39 16.39 0 001-4.36 9.68 9.68 0 00-.05-2.08 17.57 17.57 0 00-1 1.8 41.41 41.41 0 00-1.68 4l-.16.46c.07-.37.13-.74.16-1.07a12.43 12.43 0 00.1-2.46s-.14.21-.34.59-.48.92-.79 1.57-.6 1.3-.92 2.05c.08-.23.16-.45.22-.69.15-.47.3-1 .44-1.44s.26-1 .38-1.46.21-1 .32-1.43c.19-.93.33-1.81.42-2.57a18 18 0 00.15-2.62 19.5 19.5 0 00-1.2 2.29c-.32.7-.66 1.52-1 2.42-.15.45-.33.9-.47 1.38s-.29 1-.44 1.44l-.15.56c-.08-.51-.17-1-.26-1.54a18.49 18.49 0 00.75-2.39 16.82 16.82 0 00.45-3.7 9.21 9.21 0 00-.14-1.76 8.75 8.75 0 00-.91 1.52 14.17 14.17 0 00-.91 2.37c-.27-1.27-.54-2.49-.82-3.62-.34-1.52-.72-2.9-1.07-4.11s-.6-2.28-.9-3.15C53.16 1 52.83 0 52.83 0s.17 1 .51 2.8.79 4.33 1.29 7.38c.25 1.47.48 3.07.73 4.74-.13-.29-.26-.59-.42-.88s-.45-.86-.67-1.3-.49-.85-.73-1.27-.51-.82-.75-1.21c-.5-.78-1-1.48-1.46-2.07a17 17 0 00-1.64-1.91 16.89 16.89 0 00.7 2.42c.25.7.57 1.51 1 2.35.2.41.38.86.61 1.28l.67 1.31.73 1.27c.18.34.4.67.6 1l-.36-.53c-.25-.39-.54-.75-.8-1.11-.53-.7-1-1.34-1.53-1.87a16.84 16.84 0 00-1.72-1.7 15.64 15.64 0 00.76 2.3c.19.45.43 1 .68 1.47a21.58 21.58 0 00-1.73-2 24.09 24.09 0 001 2.73c.33.8.75 1.71 1.23 2.67.25.47.48 1 .76 1.46l.09.16c-.52-.64-1-1.23-1.5-1.72a19.65 19.65 0 00-1.93-1.85 20.05 20.05 0 001 2.46c.35.71.79 1.52 1.29 2.37l.48.78c-.44-.52-.88-1-1.28-1.42a20 20 0 00-2-1.83 18.71 18.71 0 001.16 2.42c.36.72.81 1.52 1.33 2.37.26.41.52.86.81 1.28l.89 1.3.93 1.26c.3.42.64.81.95 1.19s.75.89 1.1 1.29q-.07.25-.15.48l-.12-.19-.86-1.27-.92-1.24c-.29-.41-.63-.78-.93-1.16-.61-.75-1.21-1.43-1.76-2A19.07 19.07 0 0049 22.23a18.62 18.62 0 001 2.41c.35.7.79 1.5 1.29 2.32.24.38.48.79.74 1.18l-.63-.74a21.62 21.62 0 00-2-2.06A22.79 22.79 0 0050.51 28c.36.77.82 1.65 1.35 2.57.27.45.53.94.83 1.41l.38.6c0 .14 0 .36.09.63s.06.33.09.52l-.12-.12a13.87 13.87 0 00-1.64-1.45 13.4 13.4 0 00.75 2.05c.22.51.51 1.08.83 1.66 0 .33 0 .72.06 1.2s.07 1 .11 1.64l-.09-.18c0-.16-.06-.32-.1-.49-.17-.84-.4-1.81-.7-2.84-.15-.5-.28-1-.47-1.57L51.34 32c-.2-.53-.4-1.06-.59-1.58s-.43-1-.63-1.52c-.41-1-.84-1.89-1.24-2.65a23.14 23.14 0 00-1.45-2.49 22.35 22.35 0 00.44 2.85c.17.84.41 1.81.7 2.84.16.51.29 1 .47 1.57l.54 1.61c.2.53.4 1.06.59 1.59s.43 1 .63 1.52q.54 1.28 1.08 2.31a1.17 1.17 0 000 .26 5.3 5.3 0 000 1.07c-.26-.44-.5-.89-.76-1.33l-1.13-1.88a17.73 17.73 0 00-.4-2.84 28.56 28.56 0 00-.8-2.92c-.19-.52-.36-1.07-.59-1.61l-.68-1.62-.79-1.58c-.26-.52-.57-1-.84-1.49a28.54 28.54 0 00-1.7-2.51 18.07 18.07 0 00-2-2.23s.09.29.27.78.43 1.18.77 2 .72 1.74 1.17 2.73.92 2 1.38 3.09c.25.52.49 1.05.73 1.56s.49 1 .71 1.51c.46 1 .92 1.88 1.32 2.66.16.33.32.62.46.89l-1.43-2.32c-.81-1.17-1.57-2.33-2.37-3.47a17.89 17.89 0 00-.42-1.91 24.65 24.65 0 00-.87-2.59c-.19-.46-.36-.95-.6-1.42l-.69-1.43c-.26-.46-.52-.92-.77-1.38s-.55-.88-.82-1.31a24.75 24.75 0 00-1.62-2.2 16.5 16.5 0 00-1.86-1.95 26.78 26.78 0 00.94 2.51c.31.73.68 1.57 1.11 2.45s.89 1.82 1.36 2.75l.73 1.37c.13.26.27.5.41.74-.78-1-1.55-2.06-2.34-3l-.58-.72c-.22-.5-.45-1-.7-1.57s-.46-1-.74-1.5l-.8-1.53-.85-1.5c-.28-.5-.59-1-.88-1.43-.58-.92-1.15-1.76-1.67-2.46a23.25 23.25 0 00-1.86-2.32 23.44 23.44 0 00.92 2.8c.31.81.71 1.75 1.17 2.73.18.38.36.78.56 1.17-.79-.85-1.58-1.67-2.33-2.42-1.21-1.2-2.36-2.26-3.39-3.18s-2-1.7-2.73-2.32-1.4-1.09-1.82-1.42l-.64-.49 2.21 2.18c.71.69 1.54 1.55 2.49 2.55s2 2.16 3.1 3.42 2.29 2.67 3.51 4.17L35.8 19l-.38-.36A23.84 23.84 0 0031.84 16a12 12 0 00-1.84-.95 12.8 12.8 0 001.16 1.73A22.87 22.87 0 0034.18 20q.65.57 1.32 1.08c-.19-.09-.4-.2-.58-.27A13.44 13.44 0 0033 20.1c-.47-.14-.75-.2-.75-.2s.2.2.58.52.89.78 1.53 1.3 1.36 1.14 2.16 1.77 1.62 1.32 2.43 2l2.43 2c.37.35.77.65 1.12 1l.68.57c.12.18.24.35.35.53l-.7-.59c-.38-.32-.79-.58-1.17-.86a20.15 20.15 0 00-2.19-1.35 13.52 13.52 0 00-2.32-1s.64.82 1.67 1.88c.52.54 1.13 1.15 1.8 1.78s1.4 1.28 2.12 1.94l1.1.95c.35.33.73.62 1.08.92.7.59 1.38 1.12 2 1.57l.27.42c-.18-.17-.35-.35-.53-.51-.36-.35-.76-.64-1.12-1a17.21 17.21 0 00-2.16-1.44 13.51 13.51 0 00-1.67-.79c-.41-.16-.66-.24-.66-.24s.16.21.45.54.71.8 1.22 1.34 1.08 1.22 1.72 1.85l1.61 1.72c0 .1.09.2.14.31.2.44.44.93.69 1.44l-.49-.4a19.58 19.58 0 001.13 2.45c.37.71.84 1.51 1.37 2.35.27.41.53.85.84 1.27s.6.86.9 1.29l.87 1.14c.21.32.41.6.59.86l-.09-.04.08.16-1.18-1.28c-.62-.7-1.3-1.38-2-2.07s-1.42-1.4-2.17-2.09c-1.54-1.35-3.08-2.8-4.8-4.09-.47-.39-1-.75-1.45-1.11a14.63 14.63 0 00-.92-1.69 21.69 21.69 0 00-1.62-2.33c-.33-.39-.65-.83-1-1.22s-.76-.8-1.13-1.2l-1.22-1.12c-.39-.37-.83-.68-1.23-1A22.87 22.87 0 0031 26.74a15.14 15.14 0 00-2.49-1.24s.17.23.49.6.77.88 1.33 1.48 1.21 1.28 1.92 2 1.43 1.42 2.18 2.22l1.13 1.12c.37.38.76.73 1.12 1.08l.63.6-.65-.46c-1.62-1-3.21-2.08-4.85-3-.2-.3-.43-.62-.7-1a22.08 22.08 0 00-1.79-2.08c-.36-.36-.71-.75-1.11-1.09L27 25.91l-1.27-1c-.41-.33-.86-.6-1.27-.88a22.18 22.18 0 00-2.39-1.37 15 15 0 00-2.51-1s.74.83 1.9 1.9c.58.55 1.26 1.17 2 1.8s1.54 1.31 2.34 2l1.2 1 .65.52-2.14-1.08c-.76-.37-1.52-.69-2.27-1a9.34 9.34 0 00-1.11-1.31 14.55 14.55 0 00-3.36-2.51 14.64 14.64 0 00-3.91-1.51 8.4 8.4 0 00-1.94-.25 13.65 13.65 0 001.49 1.22 31.58 31.58 0 003.45 2.18l.13.07-.44-.17c-.83-.3-1.65-.54-2.43-.79s-1.52-.5-2.23-.7l-2.05-.52c-1.29-.33-2.41-.6-3.34-.77-1.86-.37-2.93-.55-2.93-.55s1 .34 2.84.9c.92.26 2 .64 3.23 1.09l2 .71 2.15.85c.73.27 1.48.58 2.24.91a14.37 14.37 0 00-1.7-.05 10.68 10.68 0 00-2.15.23 17.06 17.06 0 002 .83 40.23 40.23 0 004.38 1.27c1.41.33 2.83.6 4 .75l1.26.61.95.52c-.17 0-.35-.09-.53-.12-.58-.14-1.17-.21-1.73-.31a25 25 0 00-3.12-.27 16.69 16.69 0 00-3.06.15s.29.11.8.27 1.23.39 2.1.64 1.87.54 2.94.82l3.35.92 3.35.91c.77.22 1.48.41 2.15.58l.94.59-1.37-.4c-.49-.15-1-.23-1.47-.34a20.13 20.13 0 00-2.64-.34 13.68 13.68 0 00-2.62 0l.66.31c.42.18 1 .43 1.73.7s1.55.58 2.44.89 1.85.62 2.8.95l.58.2a15.09 15.09 0 00-1.93-.27 10.49 10.49 0 00-2.39.06s.21.12.59.3.91.42 1.55.69c1.28.55 3 1.21 4.65 1.86s3.37 1.31 4.69 1.77c.65.23 1.21.41 1.61.53s.64.18.64.18a10.69 10.69 0 00-1.73-1.65A16.89 16.89 0 0037 37.22l.72.21.53.15c.85.61 1.68 1.22 2.49 1.86 1.17.88 2.28 1.8 3.37 2.71l-.53-.28a20.36 20.36 0 00-5-1.6 12 12 0 00-2.4-.22l.56.37c.36.22.86.53 1.48.87 1.23.69 2.88 1.5 4.54 2.28s3.35 1.52 4.67 2c.37.15.72.27 1 .38l.4.36a16.72 16.72 0 00-3.48-1 11 11 0 00-2.31-.2s.19.14.53.36l1 .6L46 47.38c.31.29.64.62 1 1l1.09 1.08c.73.77 1.52 1.57 2.26 2.41s1.47 1.7 2.15 2.51c-.32-.08-.65-.16-1-.23-.09-.16-.18-.33-.29-.5a12.73 12.73 0 00-.8-1.24 20.69 20.69 0 00-2.41-2.8c-.51-.45-1-1-1.58-1.37S45.3 47.39 44.7 47s-1.24-.75-1.88-1.06a20 20 0 00-1.9-.87 19.58 19.58 0 00-3.55-1c-.53-.11-1-.17-1.46-.22a10.44 10.44 0 00-1.13-.08h-1l.91.37c.59.22 1.39.54 2.34 1 .33.13.68.29 1 .46h-.13s.15.21.43.53.68.79 1.17 1.31l.74.77a6.47 6.47 0 00-.91-.2c-.29-.25-.58-.5-.89-.75-.57-.42-1.14-.9-1.79-1.29s-1.29-.78-2-1.17-1.37-.68-2.07-1-1.4-.51-2.07-.75a21.61 21.61 0 00-3.8-.82c-.46-.23-.99-.23-1.45-.23a9.6 9.6 0 00-1.19 0c-.66 0-1 .05-1 .05s.36.13 1 .31 1.5.47 2.55.83c.52.17 1.07.39 1.66.6s1.18.49 1.82.72 1.26.56 1.9.86 1.28.63 1.92 1l.77.42-.69-.23a11.25 11.25 0 00-1.81-.46l-.52-.1c-.8-.17-1.6-.31-2.39-.45a22.07 22.07 0 00-2.35-1.25c-.5-.21-1-.46-1.54-.64s-1.09-.37-1.64-.56-1.11-.3-1.67-.42-1.11-.22-1.64-.32a20.46 20.46 0 00-3-.25 17.23 17.23 0 00-2.1.08l-.79.11s.27.11.75.26 1.16.37 2 .61 1.75.52 2.76.8l2.53.75c-.91-.05-1.82-.09-2.7-.11H18.8a18.28 18.28 0 00-5-1.18 18.81 18.81 0 00-5.13.19 11.6 11.6 0 00-2.28.63s.24.07.64.15 1 .19 1.66.3 1.78.25 2.8.37l-1.86.26c-1.49.24-2.83.53-4 .82s-2.2.57-3 .82-1.48.49-1.92.64l-.71.18 2.69-.51c.85-.17 1.89-.33 3.08-.5.68-.09 1.42-.17 2.2-.25a1.82 1.82 0 00-.3.11 8.55 8.55 0 00-2.74 1.78 5.24 5.24 0 00-1 1.2 9.37 9.37 0 001.49-.27 20.12 20.12 0 002.93-1 19.68 19.68 0 002.8-1.35 9.49 9.49 0 001.16-.8c.54 0 1.09 0 1.64-.06l-.2.06a17.25 17.25 0 00-4.41 2.13 10.31 10.31 0 00-1.74 1.42 6 6 0 00.62-.1c.39-.08.93-.19 1.57-.35 1.27-.31 2.91-.8 4.54-1.33s3.24-1.08 4.45-1.58l.5-.21h.58l1.19.09a17 17 0 00-3.64 1 16 16 0 00-4.09 2.39 9.85 9.85 0 00-1.55 1.54s.22 0 .59-.15.88-.25 1.48-.45c1.21-.39 2.74-1 4.27-1.59l.75-.31-.2.14-.59.43s.27 0 .72-.08 1.09-.16 1.84-.29l1.37-.21a14 14 0 00-3.17 2 8.55 8.55 0 00-1.38 1.42 15.15 15.15 0 001.9-.47c1-.31 2.31-.79 3.59-1.31.83-.08 1.75-.2 2.68-.34a19.13 19.13 0 00-2.9 1.61 11.82 11.82 0 00-1.81 1.4 20.08 20.08 0 002.25-.48c1.33-.34 3-.89 4.69-1.49 1.3-.48 2.58-1 3.67-1.48h.15c-.13.09-.27.17-.39.26a6.66 6.66 0 00-.6.46c-.29.07-.59.13-.87.21a14.52 14.52 0 00-1.41.52 16.2 16.2 0 00-2.4 1 11.63 11.63 0 00-1.56 1l-.55.45s.26 0 .7-.11l1.8-.34 1.17-.24c.41-.09.85-.15 1.28-.26.9-.16 1.84-.37 2.79-.53s1.9-.33 2.79-.49c.45-.06.88-.16 1.3-.22l1.17-.2c.73-.12 1.35-.24 1.78-.32l2.47.28.33.25a13.1 13.1 0 00-1.75.28 9.63 9.63 0 00-1 .29h-.35a17.28 17.28 0 00-9 1.58 9.65 9.65 0 00-1.84 1.11 20.48 20.48 0 002.12-.07c.79-.06 1.73-.18 2.72-.32a14.16 14.16 0 00-1.77 1c-.45.31-.7.5-.7.5l.85-.16 2.18-.48 1.43-.27c.5-.11 1-.16 1.58-.28l.83-.11.87.14c.46.06 1.08.15 1.82.23a12.37 12.37 0 00-1.3.32 11.64 11.64 0 00-1.67.64c-.39.19-.61.32-.61.32H37.79c-.55 0-1.1.12-1.62.18a29.08 29.08 0 00-3.28.63 19.38 19.38 0 00-3.11 1H33.02c.96 0 2.08 0 3.28-.05l3.58-.08-1.1.21h-.34c-1 0-2.16.15-3.39.29-.62.08-1.26.14-1.9.25l-2 .3-1.94.37c-.64.11-1.26.27-1.87.4-1.21.28-2.34.57-3.3.86a28.82 28.82 0 00-3.17 1.09 31.35 31.35 0 003.36 0l1.3-.08c-.54.12-1.1.23-1.65.39s-1.27.36-1.91.55l-1.87.67c-.62.21-1.2.49-1.78.73a30.45 30.45 0 00-3 1.55 20.05 20.05 0 00-2.77 1.86s.33-.07.9-.22 1.36-.38 2.3-.66l.41-.12-.22.08-1.3.55c-.43.17-.83.39-1.24.58-.79.39-1.53.78-2.14 1.16a17 17 0 00-2 1.37 17 17 0 002.4-.37c.7-.15 1.51-.37 2.35-.63.42-.14.87-.26 1.3-.43l.89-.33c-.49.37-1 .74-1.42 1.11a8.22 8.22 0 00-1.24.2 13 13 0 00-3.74 1.65 13.2 13.2 0 00-3.16 2.47A8.1 8.1 0 005.51 75a13.15 13.15 0 001.75-.61 29.35 29.35 0 003.47-1.73l.84-.49-.13.12c-.58.55-1.13 1.1-1.63 1.64C8.76 75 7.9 76.05 7.13 77s-1.37 1.78-1.9 2.46c-1 1.43-1.5 2.25-1.5 2.25s.67-.73 1.79-2c.59-.62 1.29-1.39 2.13-2.23.57-.55 1.21-1.16 1.88-1.78A11.21 11.21 0 009 76.82a8.76 8.76 0 00-.55 2.07 6.38 6.38 0 00-.07 1.51c0 .36.06.57.06.57s.12-.17.3-.49l.73-1.24c.59-1 1.37-2.28 2.24-3.5a1.13 1.13 0 01.1-.13 12.51 12.51 0 00-.8 2.66c-.06.39-.08.62-.08.62a5.11 5.11 0 00.42-.47c.25-.31.6-.72 1-1.24l2.85-3.68 2-2.56a16.17 16.17 0 00-1.11 2 13.15 13.15 0 00-.76 2c-.14.49-.21.78-.21.78s.21-.22.54-.61L17 73.56l.89-1 1-1.14L20 70.17c-.28.39-.53.78-.75 1.14a15.59 15.59 0 00-1 1.91c-.2.48-.3.76-.3.76s.23-.19.61-.55L20.08 72l1-1 1.12-1c.79-.71 1.62-1.47 2.48-2.19s1.73-1.44 2.55-2.12l2.31-1.79 1.67-1.28.63-.51s-.29 0-.8.17c-.28.07-.62.17-1 .3l1-.39c.89-.36 1.8-.67 2.7-1l.42-.13A19.32 19.32 0 0032 62.39a11.32 11.32 0 00-1.2.7c-.55.34-1.09.71-1.63 1.08s-1 .8-1.53 1.22-.95.86-1.4 1.28A22.75 22.75 0 0024 69.18a16.65 16.65 0 00-1.33 2c-.29.5-.44.79-.44.79s.27-.19.72-.55l1.82-1.46L26 69l1.33-1.06c.94-.72 1.93-1.49 2.95-2.22s2.05-1.45 3-2.13l.27-.18c.65-.29 1.32-.59 2-.91 1.54-.75 3-1.55 4.17-2.25.67-.4 1.19-.77 1.51-1 1.08-.21 2.14-.38 3.16-.52v.13a22.87 22.87 0 00-2.22.69 28.35 28.35 0 00-3.07 1.32c-.54.28-1.11.55-1.66.89s-1.1.66-1.66 1-1.08.74-1.59 1.12-1 .78-1.49 1.16a27.75 27.75 0 00-2.44 2.27 21.15 21.15 0 00-1.68 1.94c-.32.29-.65.59-1 .9-.87.8-1.63 1.69-2.4 2.51s-1.45 1.68-2.07 2.51A15.09 15.09 0 0021.77 77l-.34.49c-.51.73-.94 1.44-1.3 2.07s-.69 1.19-.92 1.65c-.48.93-.73 1.47-.73 1.47s.39-.45 1-1.27l.58-.7c-.06.19-.12.39-.16.57a8.81 8.81 0 00-.29 2s.15-.16.38-.44.54-.67.88-1.15c.71-1 1.54-2.26 2.34-3.58.3-.48.58-1 .85-1.45a18.13 18.13 0 00-.87 2.1 13.86 13.86 0 00-.51 1.94c-.08.47-.11.75-.11.75s.18-.22.46-.61l1.12-1.6 1.56-2.23c.59-.79 1.19-1.65 1.83-2.47.17-.23.34-.45.52-.67-.65.92-1.22 1.8-1.69 2.57a28.79 28.79 0 00-1.51 2.76 25.79 25.79 0 002.35-2.09c.44-.43.93-.93 1.42-1.46A23.18 23.18 0 0031 74.06c.28-.22.58-.48.88-.73l-.47.49a59.69 59.69 0 00-4.18 4.68 60.32 60.32 0 00-3.58 5.21 55 55 0 00-2.83 5.41 50.68 50.68 0 00-2.05 5.32 50.18 50.18 0 00-1.33 4.92c0 .23-.08.44-.13.66a2.32 2.32 0 000-.23 8 8 0 00-.79 1.88 13.59 13.59 0 00-.55 4.39 14.74 14.74 0 00.45 3.08v.62s0-.15.05-.42a10.28 10.28 0 00.36 1.07 8 8 0 00.92 1.82s0-.21.06-.56.07-.86.08-1.45 0-1.35 0-2.12a8.72 8.72 0 00.5 1.41s.05-.23.13-.63.16-1 .25-1.64c.19-1.34.37-3.09.54-4.84.07-.81.15-1.62.22-2.39a23.42 23.42 0 00.13 2.62 19.07 19.07 0 00.39 2.46c.13.59.23.92.23.92s.06-.34.14-.94.19-1.43.32-2.43l.44-3.4c.19-1.23.37-2.54.61-3.85s.47-2.6.7-3.83.5-2.37.71-3.35h-.18a3.44 3.44 0 00.6-1.41 6.26 6.26 0 01-.3 1.68c-.12.58-.15 1.15-.24 1.72s-.1 1.13-.17 1.68a19.93 19.93 0 000 3 14.93 14.93 0 00.28 2.11c.11.5.19.79.19.79s0-.09.07-.25c.11.41.19.64.19.64s.07-.24.18-.66.23-1 .37-1.71.31-1.51.47-2.38l.53-2.68c.36-1.84.73-3.68 1-5.06v-.26c.25-.89.48-1.73.68-2.45.12-.45.23-.85.33-1.21.49-.68 1-1.36 1.49-2 .1-.12.2-.25.31-.37-.07.13-.14.24-.2.37-.22.48-.47 1-.67 1.47s-.4 1-.61 1.55-.33 1.07-.5 1.59-.28 1.06-.41 1.56a26 26 0 00-.49 2.83 16.2 16.2 0 00-.1 2.81s.13-.25.34-.7.5-1.08.81-1.84c.14-.35.29-.72.44-1.11v.92a20.83 20.83 0 000 2.35c.05.56.1.89.1.89s.11-.31.27-.85.39-1.31.65-2.22l.59-2.13.25-.54c.19-.44.46-1.08.76-1.83l.48-1.21c.16-.43.37-.87.53-1.34.41-.96.76-1.96 1.2-2.96s.82-2 1.19-2.88c.21-.45.38-.91.57-1.33s.34-.83.5-1.2L35 73c.51-.47 1-.91 1.53-1.35a11.25 11.25 0 00-.67.94c-.32.48-.61 1-.92 1.51s-.53 1.06-.76 1.6a16 16 0 00-.61 1.61 16.61 16.61 0 00-.68 2.95 12.14 12.14 0 00-.15 2.14v.81s.08-.15.2-.43a14.62 14.62 0 00-.06 1.89v.88s.13-.29.32-.82l.8-2.16c.16-.43.33-.91.52-1.41s.38-1 .58-1.56c.43-1.07.87-2.22 1.36-3.34s.93-2.15 1.39-3.16a9.62 9.62 0 00-.38 1.41 8.24 8.24 0 00-.14 1 7.5 7.5 0 000 .77v.68s.14-.22.34-.59.48-.88.83-1.5l.56-1q.13-.25.3-.51l-.24.56c-.19.49-.28.77-.28.77l.59-.56.74-.75c-.21.51-.4 1-.59 1.5a29.91 29.91 0 00-1 3.5 22.25 22.25 0 00-.51 2.62c-.07.62-.1 1-.1 1s.18-.32.46-.87.65-1.35 1.12-2.3l1.55-3.22c.58-1.16 1.18-2.41 1.82-3.64.23-.46.47-.91.7-1.36.9-.94 2-2.13 3-3.34l.17-.2a4 4 0 00-.22 1.36 1.45 1.45 0 01-.41 1l.12-.09c-.41.43-.78.89-1.15 1.31a32 32 0 00-2 2.61 20.71 20.71 0 00-1.63 2.77s.26-.19.69-.55 1-.87 1.75-1.51 1.52-1.38 2.36-2.19c.32-.3.65-.61 1-.93l.06.09c-.2.2-.4.4-.59.62l-1 1.09-1 1.14c-.32.37-.6.77-.89 1.13-.56.75-1.06 1.47-1.46 2.11a17.68 17.68 0 00-1.23 2.22 17.56 17.56 0 002-1.52c.58-.48 1.23-1.07 1.89-1.72.33-.34.68-.66 1-1l1-1.09 1-1.14c.14-.16.27-.33.4-.5a4 4 0 00.39.23l-.05.06c-.39.39-.81.78-1.19 1.22L46.53 75l-1.14 1.33c-.38.44-.72.9-1.07 1.33-.68.87-1.29 1.71-1.79 2.45A25.48 25.48 0 0041 82.63a25.59 25.59 0 002.36-1.85c.67-.58 1.43-1.28 2.21-2.07.39-.39.81-.78 1.19-1.21l.49-.54v.1c-.19.19-.38.39-.56.59l-1.11 1.22-1.06 1.26c-.35.41-.67.84-1 1.25-.63.82-1.19 1.61-1.64 2.32a21.33 21.33 0 00-1.42 2.42 20.33 20.33 0 002.22-1.72c.64-.54 1.35-1.2 2.08-1.93.36-.38.75-.74 1.11-1.15L47 80.1l.64-.75c-.11.41-.2.81-.28 1.19-.36.38-.73.78-1.11 1.23s-.59.68-.86 1.06l-.9 1.17-.8 1.16c-.27.38-.5.78-.74 1.16-.46.75-.87 1.48-1.19 2.13a16.36 16.36 0 00-.95 2.23A15.88 15.88 0 0042.63 89c.52-.51 1.08-1.12 1.66-1.8.28-.34.59-.68.87-1.06s.56-.75.85-1.12l.8-1.17c.28-.37.5-.78.74-1.15s.48-.79.69-1.17c-.14.7-.26 1.38-.37 2-.45.52-.92 1.09-1.4 1.71-.32.44-.68.87-1 1.33l-1 1.41-.94 1.44c-.31.47-.58 1-.86 1.42-.55.93-1 1.82-1.42 2.6a24.18 24.18 0 00-1.17 2.68 21.88 21.88 0 002.06-2.08c.58-.64 1.23-1.42 1.89-2.28.32-.43.68-.86 1-1.33l1-1.4c.32-.48.63-1 .94-1.44.15-.22.29-.45.42-.68 0 .4-.07.72-.09 1-.39.45-.79.93-1.2 1.45s-.76 1-1.1 1.53-.71 1.08-1.06 1.63-.65 1.13-.95 1.69-.56 1.14-.83 1.69a29.92 29.92 0 00-1.22 3.1 19.53 19.53 0 00-.8 3.17s.2-.27.52-.75.75-1.15 1.25-2 1.1-1.77 1.71-2.79 1.27-2.1 1.93-3.18l1.7-2.84c-.13.89-.24 1.77-.37 2.62l-.06.61a9.7 9.7 0 00-.73.72 17.06 17.06 0 00-2.66 3.77 17.41 17.41 0 00-1.61 4.32 10.3 10.3 0 00-.29 2.12 17 17 0 001.27-1.7 41.82 41.82 0 002.29-3.87c.55-1 1.06-2.09 1.48-3-.1 1-.18 2-.24 2.86-.06.13-.12.25-.17.38-.18.41-.38.83-.54 1.27s-.33.89-.5 1.33-.29.91-.44 1.36-.25.89-.38 1.32c-.23.87-.41 1.69-.53 2.4a16.94 16.94 0 00-.28 2.43 16 16 0 001.29-2.07c.34-.62.7-1.35 1-2.14v-.07l.27-.63v2.3c.05 1.36.08 2.15.08 2.15s.41-3 1-7.56l.07-.22c.16-.44.26-.9.38-1.33a23.32 23.32 0 00.54-2.4 16.74 16.74 0 00.28-2.42s-.15.19-.37.53c.12-.72.25-1.44.36-2.19l.25-1.35v.38c.12 1 .28 1.85.45 2.62a18.22 18.22 0 00.91 2.58 19.39 19.39 0 00.38-2.61c.07-.78.11-1.68.12-2.65v-1.5l-.06-1.53-.12-1.54v-.12a2.07 2.07 0 000-.23c0-.16.06-.36.1-.62.07-.53.16-1.27.28-2.13v-.35c0-.36.09-.75.15-1.15v.4c.07 1 .2 2.16.37 3.4l.06.42c.06.48.13 1 .22 1.48l.06.33.06.36c0-.07 0-.12-.07-.18a17.28 17.28 0 00-1-2 2.05 2.05 0 00-.12-.2 1.78 1.78 0 010 .2q0 .21.06.66c.05.53.12 1.29.23 2.19s.23 1.94.36 3.06c0 .18 0 .37.07.56.1 1 .22 1.93.32 2.92.13 1.18.23 2.37.34 3.49 0 .55.11 1.09.15 1.61s.09 1 .13 1.45c.1.91.17 1.67.23 2.2s.11.85.11.85.1-.3.26-.82a15.91 15.91 0 00.47-2.19 23.59 23.59 0 00.3-3.15v-1.79c0-.41 0-.82-.08-1.23.08.25.15.49.23.72a30.63 30.63 0 001.15 3.16 30.57 30.57 0 00-.08-3.07c.64 2.06 1.19 3.39 1.19 3.39s0-1.65-.29-4.07c-.12-1.22-.31-2.63-.55-4.13-.13-.74-.24-1.52-.39-2.3s-.31-1.58-.46-2.38l-.52-2.36c-.16-.78-.37-1.53-.55-2.27-.37-1.48-.75-2.84-1.11-4-.15-.49-.29-.93-.43-1.34l.21-.85c0 .2.09.42.13.6a15.42 15.42 0 00.67 2.16s.09-.31.19-.83c.07.37.14.74.22 1.11.14.69.26 1.4.41 2.12s.29 1.46.44 2.19c.3 1.46.61 2.92.89 4.3s.57 2.65.82 3.75.47 2 .64 2.67.28 1 .28 1a29 29 0 00.14-3.81c0-1.15-.1-2.48-.25-3.89-.09-.71-.16-1.44-.29-2.18l-.39-2.23-.12-.52c-.06-.45-.14-.93-.22-1.42-.14-1-.34-2-.51-3.11l-.27-1.58c-.08-.52-.2-1-.29-1.52s-.18-1-.28-1.48H54.4c0 .63.11 1.23.18 1.77a27.07 27.07 0 00.52 3.15s.26-1 .48-2.63v.14c.17 1.34.36 2.78.5 4.21s.28 2.88.4 4.23.18 2.64.26 3.72.14 2 .18 2.67.09 1 .09 1 .11-.36.28-1a23.86 23.86 0 00.52-2.65 29.81 29.81 0 00.38-3.76v-1.17c.08.36.17.71.26 1 .67 2.65 1.28 4.38 1.28 4.38s0-1.84-.22-4.56c-.11-1.36-.28-2.94-.49-4.63-.11-.84-.21-1.72-.35-2.6s-.26-1.78-.39-2.67l-.36-2.12a6.73 6.73 0 00.71-.59c.11.71.21 1.42.3 2.14.25 1.68.44 3.36.63 4.94s.34 3.07.48 4.34.26 2.35.34 3.1.16 1.18.16 1.18.09-.42.21-1.17a28.71 28.71 0 00.36-3.12 41.74 41.74 0 00.1-4.44c0-.82 0-1.66-.15-2.51s-.16-1.67-.26-2.5l-.15-.88.14.29a15.82 15.82 0 00.21-2.35v-.9h.19l.24-.09c.11 1 .22 2 .32 3 .13 1.29.24 2.5.34 3.53s.2 1.91.26 2.52.13 1 .13 1 .1-.34.24-1c.07-.27.14-.61.21-1v.6c0 .7.08 1.28.12 1.7s.08.66.08.66a11.09 11.09 0 00.87-2.23c.07-.23.13-.5.19-.75l.07-.08a1.48 1.48 0 00.23-.38v2.96c0 1.59.17 2.68.17 2.68a15 15 0 00.65-1.71v.36c0 1.19.11 2.29.21 3.24a28.91 28.91 0 00.46 3.18 29.2 29.2 0 00.61-3.15c.14-1 .27-2.05.36-3.23 0-.59.11-1.21.13-1.83s0-1.25.08-1.88 0-1.27 0-1.89v-1.83a1.48 1.48 0 000-.21c.28.89.55 1.79.82 2.71 0 .44-.07 1-.11 1.56-.06.87-.13 1.89-.2 3s-.16 2.24-.27 3.39-.22 2.3-.32 3.38-.23 2.1-.33 3-.16 1.63-.21 2.14-.06.83-.06.83.16-.26.41-.72a16.65 16.65 0 00.91-2c0 .48-.06.94-.08 1.37 0 .78-.05 1.43-.06 1.91s0 .74 0 .74a14.36 14.36 0 001.09-2.45 20.9 20.9 0 00.75-2.62c.09-.49.21-1 .27-1.51s.13-1 .2-1.58.06-1.06.08-1.58v-.08c.15.75.3 1.5.43 2.24.31 1.79.63 3.56.89 5.27.1.69.2 1.36.3 2a8.44 8.44 0 00-.56-1.39s-.11.42-.23 1.09a17.46 17.46 0 000-4 11.22 11.22 0 00-.46-2.16 16.16 16.16 0 00-.61 2.1 44.3 44.3 0 00-.81 4.51 45.66 45.66 0 00-.41 4.62 19.15 19.15 0 000 2.19 10.93 10.93 0 001-2 17.77 17.77 0 001-3.41c-.11 1-.2 2-.27 3.11-.09 1.51-.14 3-.1 4.21 0 .58 0 1.07.06 1.43s.06.57.06.57a8.32 8.32 0 00.93-1.81 14.18 14.18 0 00.93-4.29v-.9c.16 1.19.31 2.35.45 3.42.38 2.77.68 5.07.9 6.69s.37 2.54.37 2.54v-2.57c0-1.63 0-4-.19-6.75.2.54.4 1.05.6 1.49a14.33 14.33 0 00.85 1.71 8.4 8.4 0 00.2-1.92 14 14 0 00-.61-4.1 14.28 14.28 0 00-1.44-3.22c-.1-1.14-.21-2.3-.35-3.51 0-.5-.12-1-.19-1.52 0 .19.09.38.15.57.14.46.27.93.41 1.39s.31.92.46 1.37.34.89.5 1.31a22.85 22.85 0 001 2.28 16.47 16.47 0 001.23 2.15 17.11 17.11 0 00-.21-2.47c-.1-.73-.26-1.57-.47-2.45-.11-.44-.2-.91-.34-1.36l-.4-1.39c-.16-.46-.31-.92-.47-1.37s-.33-.89-.49-1.31c-.34-.85-.9-1.63-1.23-2.28a9.31 9.31 0 00-1.45-2.15v.07a18 18 0 00-.52-3.69c-.21-.9-.33-1.8-.57-2.69.25.73.57 1.52.87 2.34q.33.93.69 1.89c.23.64.48 1.29.71 1.94.47 1.3.95 2.6 1.4 3.81s.88 2.36 1.26 3.34.71 1.78 1 2.35.4.9.4.9a24.79 24.79 0 00-.31-3.53 35.94 35.94 0 00-.64-3.48c-.18-.64-.33-1.31-.55-2l-.33-1c-.08-.54-.22-1.32-.44-2.26s-.46-1.93-.79-3c-.17-.55-.33-1.12-.53-1.68s-.39-1.14-.59-1.71c-.11-.3-.23-.59-.34-.89l.13.21c.43.68.85 1.37 1.31 2s.83 1.2 1.27 1.8h-.43l.69.26.25.09-.08-.32a33.19 33.19 0 00-1.64-4.61c-.19-.43-.4-.85-.6-1.28h.06a10.57 10.57 0 00-.42-1.9q-.1-.36-.24-.75l.39.35c.35.3.57.46.57.46a13.56 13.56 0 00-1.13-2.39c-.11-.21-.26-.43-.39-.65.44.48.87.93 1.27 1.3a16 16 0 001.86 1.57 15.86 15.86 0 00-1-2.21c-.33-.64-.75-1.36-1.23-2.11-.25-.37-.49-.77-.76-1.14l-.83-1.15-.89-.99c-.28-.37-.6-.71-.89-1-.52-.59-1-1.11-1.5-1.57l.79.42c.37.19.74.41 1.1.61.15.25.33.53.52.82.38.6.84 1.28 1.36 2 .26.35.51.73.79 1.09l.84 1.1c.59.73 1.16 1.47 1.73 2.13s1.11 1.29 1.59 1.81A21.85 21.85 0 0078.41 75a13.22 13.22 0 00-.82-2.29 20.41 20.41 0 00-1.15-2.18c-.24-.37-.47-.78-.75-1.16l-.83-1.16-.92-1.09a12.23 12.23 0 00-.84-.91l.63.37a2.08 2.08 0 00.15.2l1 1.36c.84 1.1 1.93 2.53 2.95 4s2 3 2.77 4.12l.93 1.41c.23.35.38.55.38.55v-.67a9.28 9.28 0 00-.3-1.72 12.67 12.67 0 00-.81-2.32 15.53 15.53 0 00-1.4-2.45 17 17 0 00-1.71-2l1 .66.11.08c.16.3.34.65.57 1.06.63 1.13 1.53 2.55 2.44 3.95s1.86 2.8 2.64 3.83c.38.52.72.94 1 1.25s.41.46.41.46a10 10 0 00-.42-2.18 26.37 26.37 0 002.23 2.94 15 15 0 001.66 1.69 14.9 14.9 0 00-.75-2.25 30.34 30.34 0 00-2.3-4.55c-.38-.62-.78-1.22-1.18-1.79 1 .78 2.07 1.55 3.06 2.34l.21.16c.14.26.31.58.52 1l1.75 3.09 1.69 3.13c.25.45.45.83.6 1.09s.26.43.26.43 0-.18.11-.49a6 6 0 00.07-1.3 8 8 0 00-.29-1.82 9.6 9.6 0 00-.69-1.84c.46.41.89.82 1.32 1.22a5.34 5.34 0 000 .87 6.57 6.57 0 00.67 2.23 6.4 6.4 0 001.38 1.87 4.22 4.22 0 001 .69 4.4 4.4 0 000-1.17 6.32 6.32 0 00-.62-2.12 43.14 43.14 0 014.23 5.07c1 1.42 1.51 2.29 1.51 2.29l-.3-.66a19.45 19.45 0 00-.9-1.82 37.36 37.36 0 00-4.13-6 59.32 59.32 0 00-7.33-7.26c-1.43-1.19-2.94-2.44-4.53-3.62s-3.23-2.35-4.91-3.45S76.37 66 74.65 65c-.46-.27-.92-.51-1.37-.76l-.28-.33a8.33 8.33 0 00-1.43-2.12A8.11 8.11 0 0069 59.93l-.13-.06 1 .11h.41a21.39 21.39 0 004 3.62c1 .87 1.95 1.72 2.78 2.33.41.31.77.56 1 .74s.43.26.43.26a6.54 6.54 0 00-.65-1.69 11.33 11.33 0 00-2.34-3.04 13.52 13.52 0 00-1.65-1.2l-.09-.08c-.24-.2-.48-.4-.73-.59l1.85.14.89.06c.77.26 1.56.53 2.37.78s1.91.69 2.86 1.01c.1.15.21.31.34.47s.34.46.52.7a16.7 16.7 0 00-3.31-2 11.78 11.78 0 00-2.26-.77s.16.19.45.49l.06.06a7 7 0 00-1.43-.4 13.12 13.12 0 001.14 1.41A31.15 31.15 0 0079.23 65a31 31 0 003 2.36 13.62 13.62 0 001.53 1 6.92 6.92 0 00-.57-1.36c.86.73 1.68 1.41 2.38 2s1 .78 1.36 1l.54.37a10.93 10.93 0 00-1.1-2.12c-.11-.18-.25-.37-.39-.56a23.12 23.12 0 002.21 1.66 13.65 13.65 0 001.92 1.1 13.61 13.61 0 00-1.18-1.88A27.35 27.35 0 0085.79 65c-.54-.52-1.11-1-1.66-1.47l1.84.76c.45.48.94 1 1.49 1.52.68.7 1.42 1.43 2.15 2.17l2.17 2.16c.69.69 1.35 1.33 1.93 1.88s1.06 1 1.42 1.31.57.49.57.49a13.51 13.51 0 00-1.15-2.46A19.92 19.92 0 0093 69c-.32-.39-.63-.82-1-1.21s-.73-.79-1.09-1.18l-.3-.27c.18.08.37.16.54.25.92.43 1.81.88 2.69 1.32a7.16 7.16 0 00-.89-.3l-.49-.1s.1.16.28.41l.77 1 2.23 2.77L98 74.53l.77 1 .33.38v-.5a5.92 5.92 0 00-.15-1.3 7.39 7.39 0 00-.58-1.74 9.38 9.38 0 00-1.1-1.79 9.49 9.49 0 00-1.48-1.49 8.73 8.73 0 00-.76-.53l.31.15c.72.41 1.43.78 2.14 1.16a5.29 5.29 0 00-.8-.11l.32.38c.21.24.51.56.86.92.7.73 1.62 1.62 2.53 2.52s1.82 1.81 2.56 2.5c.37.35.69.62.93.84s.38.32.38.32 0-.19-.06-.5a5.94 5.94 0 00-.35-1.25 8.92 8.92 0 00-2.06-3.15l.67.39c1 .62 2 1.2 2.79 1.73s1.55 1 2.13 1.37l1.86 1.2zM23.33 46.7l.33-.17h.2zm7.5 1.19h-.2A15.54 15.54 0 0028 47.8l.32-.21.6-.1.47-.08c.61.12 1.21.23 1.81.37h.08zm9.71.53l-.22-.09.17-.08a3.19 3.19 0 00.26.26zM19.39 68.1h-.07l.14-.09zm2.14-3.41l-.62.13-.3.07 1.25-.4zm4.77-.37l-1 .67.31-.28.36-.32c.5-.25 1-.48 1.51-.71-.41.2-.79.4-1.18.64zm-6.55 32.12v-.55a2.77 2.77 0 00.1-.26c-.03.26-.07.54-.1.81zm13.86-24.68zM69.76 42.4c.42-.43.79-.89 1.17-1.33h.15l-.57.59c-.4.42-.77.83-1.12 1.23l-.13.05zm-3.25 4.2zm-5.39 2.92h.16l-.1.15zm5.55 8.69h.19zm-1.21-2.77zm-4.21-6.64h.49L61 49zm-5.68-2.48l-.74-1.4a8.77 8.77 0 00.3-1.27c.11.59.22 1.16.33 1.72 0 .23.08.44.12.66a2.71 2.71 0 00-.01.29zm.68-18.78v-.08h.05zm0 9.49v.34l-.1-.17-.51-.7.13-.15c.11.24.29.46.46.65zm1.55 10.26v.14l-.1.2c.06-.09.08-.22.1-.34zm-.11.57l.14-.09v1.55l-.38.45-.08.11-.11-.23c.15-.51.29-1.11.43-1.79zM57 29a1.11 1.11 0 000 .19l-.07-.19zm-2.6-12.36c.38.57.74 1.1 1.09 1.55a.49.49 0 01.12.24c0 .15.06.29.06.42-.2-.37-.37-.77-.6-1.14zm1.16 4.68l-.08-.14.42.49.39.43.09.8-.06-.11c-.25-.48-.48-.98-.76-1.47zm.5 9.49c-.09-.13-.17-.27-.26-.41l.21-.23v.09c-.01.18.04.37.05.55zM55.78 27a1.74 1.74 0 01-.11-.18l.1.12zm.38 6.44l-.12.3-.89-1.4-.15-.16c.42.47.8.89 1.16 1.28zm-1.62 1.32c.24.36.5.7.76 1 0 .07 0 .14-.07.21-.17-.23-.35-.46-.53-.67l-.13-.3c-.15-.31-.29-.6-.43-.86zm-.5 12l1.46 2.57v.4l-.25-.47c-.36-.7-.82-1.49-1.34-2.3zm-2.47-3.16c-.18-.41-.35-.85-.57-1.27l-.37-.71.65.66.35.34c.4.66.79 1.32 1.16 2s.66 1.15 1 1.72v.17c0 .05 0 .26.05.35-.26-.39-.5-.8-.79-1.2l-.91-1.29zm.27 7.08l-.08-.1c-.42-.43-.83-.86-1.26-1.26-.11-.12-.24-.22-.36-.33.9.45 1.77.88 2.57 1.25l1 1.19c.28.32.59.69.9 1.07a12.39 12.39 0 00-1.88-1.33 9.44 9.44 0 00-.89-.49zm-1.76 2.85l.29.26-.4-.25zm-7.76-5.78l-.51-.34.15.09c.59.31 1.15.69 1.73 1s1.15.73 1.68 1.14 1.07.78 1.58 1.17 1 .78 1.43 1.17l.83.72-.6-.18-.42-.11a1.88 1.88 0 01-.24-.14l.23-.1a7.75 7.75 0 00-1.29-.48l-.57-.31a10.05 10.05 0 00-.76-.85l-1-1-1.09-1c-.39-.24-.79-.53-1.15-.78zm-6.79 19.57c-.31.31-.63.62-.94.94.42-.63.81-1.24 1.14-1.78.08-.14.16-.26.23-.39l.66-.44 1.43-.93 1.95-1.2c-.3.22-.65.48-1 .77-.69.53-1.45 1.18-2.24 1.9-.42.37-.84.73-1.23 1.13zm5.09 1.11c-.1.1-.18.22-.27.33l.26-.4.23-.16zm.77-2.43c-.47.35-.87.67-1.19.94-1 .59-1.9 1.23-2.85 1.93.69-.59 1.44-1.21 2.21-1.85.78-.42 1.66-1 2.56-1.54zm1-3.53c-.55.35-1.07.7-1.55 1 .2-.32.35-.57.43-.71 1-.58 2-1.11 2.92-1.62v.26l-.26.13c-.55.28-1.05.61-1.56.9zm1.28 2h-.08c.47-.32.91-.64 1.34-.95l.05.11c-.48.25-.91.54-1.33.8zm4.2 22.75v.18l-.09.09zm16.74-9.84zM65 70c-.09.79-.17 1.71-.23 2.69q0 .43-.06.9a17.56 17.56 0 00-.67-4.14c0-.09 0-.17-.07-.25a2.89 2.89 0 00.39-.64l.22-.5c0 .14.11.27.17.41s.22.56.33.83-.01.49-.08.7zm3.82 2.51c.2.9.47 1.94.8 3 .17.54.32 1.11.53 1.67v.17c-.39-.57-.69-1-.85-1.17-.3-1.18-.75-2.4-1.2-3.58-.64-1.64-1.31-3.21-2-4.66-.34-.73-.7-1.4-1.06-2.06a1.47 1.47 0 00-.05-.29l.47.49c.33.34.66.71 1 1.06l.3.31c.29.61.57 1.23.88 1.82s.61 1.22.93 1.82q.11.64.29 1.46zM68 65.66c-.31-.3-.52-.47-.52-.47s0 .19.08.5c-.33-.3-.69-.57-1-.85-.51-.39-1-.74-1.49-1.05v-.07c.12-.11.22-.24.33-.36l1.35 1 .82.59zm-.9-6l.64.08a4 4 0 00.21.39l-.39-.13zm1.14-5.12L66.88 54l-.61-.22.92.07.17.11c.31.21.65.43 1 .65zm.18-10.67l.73-.78h.08c-.21.24-.42.48-.61.72zm13.83 28.26c0 .06 0 .13.08.2-.09-.12-.18-.23-.28-.34zm-3.82-14.2c-.63-.41-1.34-.84-2.13-1.28-.46-.24-.91-.51-1.4-.75l-1.46-.72-1.5-.67c-.21-.1-.43-.19-.65-.27l1 .13c1.06.16 2.11.29 3.14.5l.42.09a8.83 8.83 0 00.94 1 13.26 13.26 0 002.7 2c.28.15.57.3.85.43-.57-.15-1.22-.31-1.91-.46z"/>
  <path fill="#e5ecc5" d="M39.81 34.67c.67.77 1.42 1.56 2.14 2.38l1.1 1.19c.35.4.73.78 1.07 1.15.69.76 1.36 1.45 1.94 2s1.08 1.08 1.44 1.42.58.53.58.53a15.82 15.82 0 00-1.15-2.59 24.16 24.16 0 00-1.53-2.44c-.31-.42-.62-.88-1-1.29s-.72-.85-1.09-1.28l-1.17-1.2c-.39-.39-.81-.73-1.2-1.09a22.27 22.27 0 00-2.3-1.73 15.08 15.08 0 00-2.47-1.38s.16.23.47.62.75.93 1.29 1.56 1.19 1.4 1.88 2.15zM50.16 99.7a25.74 25.74 0 00-.17 4.61c0 .62.09 1.24.16 1.84a24 24 0 00.47 2.73 12.46 12.46 0 00.64 2.06 13.14 13.14 0 00.43-2.12 26.24 26.24 0 00-.45-9.18 13.74 13.74 0 00-.4-1.4c-.14-.41-.24-.66-.24-.66a13.74 13.74 0 00-.44 2.12z"/>
</svg>
