<svg xmlns="http://www.w3.org/2000/svg" viewBox="0 0 337.77 349.12">
  <path d="M330.22 83.93l-.1-.4C322 50.59 285.23 15.24 251.49 7.89l-.38-.08a436.88 436.88 0 00-164.45 0l-.39.08c-33.73 7.35-70.46 42.7-78.62 75.64l-.09.4a321.73 321.73 0 000 138.67l.09.4c7.81 31.53 41.8 65.25 74.27 74.53v36.76c0 13.31 16.22 19.85 25.44 10.24l37.25-38.72c8.07.45 16.16.7 24.24.7a438.58 438.58 0 0082.22-7.8l.38-.08C285.23 291.29 322 256 330.12 223l.1-.4a322 322 0 000-138.67zm-29.48 132c-5.44 21.49-33.34 48.21-55.5 53.14a407.09 407.09 0 01-87.48 7.07 2.07 2.07 0 00-1.54.63L129 304.69l-28.94 29.7a3.39 3.39 0 01-5.83-2.34v-60.88a2.14 2.14 0 00-1.72-2.1c-22.17-4.93-50.05-31.65-55.5-53.14A292 292 0 0137 90.6c5.45-21.49 33.33-48.21 55.5-53.14a406.8 406.8 0 01152.71 0c22.17 4.93 50.05 31.65 55.5 53.14a292 292 0 01.03 125.33z"/>
  <path d="M217.1 244.05c-3.41-1-6.66-1.73-9.67-3-31.25-13-60-29.69-82.79-55.33-13-14.58-23.09-31-31.66-48.46-4.07-8.26-7.49-16.85-11-25.37-3.19-7.78 1.5-15.82 6.44-21.68a51 51 0 0117-12.81c5-2.42 10-1 13.69 3.25a176.13 176.13 0 0121.19 29.65c3.54 6.42 2.68 14.23-3.48 18.77-1.32 1-3.43 2.62-4.7 3.66a16.27 16.27 0 00-3.78 3.9 9.93 9.93 0 00-.66 8.73c8.13 22.35 21.84 39.73 44.34 49.09 3.6 1.5 7.21 3.24 11.36 2.76 7-.81 9.2-8.43 14.06-12.41s10.84-3.94 16-.7 10.1 6.73 15 10.24a174 174 0 0114.14 10.78c4.3 3.78 5.78 8.75 3.36 13.89-4.43 9.41-10.88 17.24-20.18 22.24-2.63 1.41-5.77 1.86-8.73 2.78-3.34-1.03 3.03-.9.07.02zM169 66.66c40.88 1.15 74.45 28.27 81.64 68.68 1.23 6.89 1.66 13.93 2.21 20.91.23 2.94-1.44 5.74-4.61 5.77s-4.75-2.7-5-5.64c-.42-5.81-.72-11.65-1.52-17.42-4.23-30.45-28.51-55.64-58.81-61-4.56-.82-9.23-1-13.85-1.52-2.92-.3-6.75-.48-7.39-4.11-.55-3 2-5.47 4.92-5.62h2.37c40.89 1.1-.78-.05.04-.05z"/>
  <path d="M231.09 147.18a20.3 20.3 0 01-.4 2.84c-1.09 4.11-7.31 4.62-8.74.48a12.14 12.14 0 01-.49-3.95 49.55 49.55 0 00-6.27-24.84 46.12 46.12 0 00-19.38-18.18 56 56 0 00-15.45-4.75c-2.33-.38-4.68-.62-7-.94-2.84-.4-4.36-2.2-4.22-5A4.39 4.39 0 01174 88.5a64.16 64.16 0 0126.78 7c17 9 26.65 23.15 29.47 42.08.13.86.34 1.71.4 2.57.16 2.12.26 4.25.43 7.05-.08.49-.16-2.82.01-.02z"/>
  <path d="M205.66 146.19c-3.42.07-5.25-1.83-5.6-5a50.87 50.87 0 00-1-6.53 18.37 18.37 0 00-6.78-10.64 17.63 17.63 0 00-5.52-2.66c-2.51-.73-5.11-.53-7.61-1.14a4.68 4.68 0 01-3.8-5.42 4.92 4.92 0 015.18-4c15.85 1.15 27.18 9.34 28.79 28a12.81 12.81 0 010 4 4.05 4.05 0 01-3.66 3.34c-3.42.12 1.56-.05 0 .05z"/>
</svg>